Division,WeightClassKg,Place,Name,Team,BodyweightKg,Best3SquatKg,Best3BenchKg,Best3DeadliftKg,TotalKg,Equipment,Event,Sex
Boys,51.71,1,Brandon Stidham,Gladewater Sabine,46.18,124.74,74.84,133.81,333.39,Single-ply,SBD,M
Boys,51.71,2,Cameron Huie,Big Sandy Harmony,51.53,106.59,56.7,113.4,276.69,Single-ply,SBD,M
Boys,51.71,3,Dayce Drennan,Winnsboro,50.26,102.06,52.16,111.13,265.35,Single-ply,SBD,M
Boys,51.71,4,Parker Thomas,Texarkana Pleasant Grove,48.81,86.18,45.36,90.72,222.26,Single-ply,SBD,M
Boys,55.79,1,Braden Fears,White Oak,53.16,133.81,88.45,151.95,374.21,Single-ply,SBD,M
Boys,59.87,1,Trey Arras,Texarkana Liberty-Eylau,57.52,190.51,124.74,185.97,501.22,Single-ply,SBD,M
Boys,59.87,2,Langdon Bautista,Quitman,57.97,129.27,77.11,154.22,360.61,Single-ply,SBD,M
Boys,59.87,3,River Chaney,Quitman,57.79,131.54,68.04,151.95,351.53,Single-ply,SBD,M
Boys,59.87,4,Cannon Chamberlain,Gladewater Union Grove,59.06,133.81,65.77,131.54,331.12,Single-ply,SBD,M
Boys,59.87,5,Walter Jones,Laird Hill Leveretts Chapel,57.79,124.74,65.77,122.47,312.98,Single-ply,SBD,M
Boys,59.87,6,Jose Arzola,Mount Vernon,59.87,124.74,70.31,117.93,312.98,Single-ply,SBD,M
Boys,59.87,7,Jake Byrd,Big Sandy Harmony,59.87,104.33,74.84,122.47,301.64,Single-ply,SBD,M
Boys,59.87,8,Jose Lopez,Grand Saline,57.97,106.59,68.04,113.4,288.03,Single-ply,SBD,M
Boys,67.13,1,Mauro Gallegos,Gladewater Sabine,65.5,190.51,108.86,179.17,478.54,Single-ply,SBD,M
Boys,67.13,2,James Jacobs #3,Gladewater Sabine,63.23,161.03,79.38,170.1,410.5,Single-ply,SBD,M
Boys,67.13,3,Gabe Muniz,Pittsburg,64.32,158.76,81.65,151.95,392.36,Single-ply,SBD,M
Boys,67.13,4,Nathan Smith #3,Mount Vernon,66.22,151.95,88.45,151.95,392.36,Single-ply,SBD,M
Boys,67.13,5,Gustavo Arango,Mineola,66.41,154.22,88.45,149.69,392.36,Single-ply,SBD,M
Boys,67.13,6,Cade Hyman,Mount Vernon,66.59,129.27,88.45,161.03,378.75,Single-ply,SBD,M
Boys,67.13,7,Ethan Clark #2,Grand Saline,66.32,136.08,81.65,133.81,351.53,Single-ply,SBD,M
Boys,67.13,8,Alec Morris,Gladewater Sabine,61.87,124.74,79.38,133.81,337.93,Single-ply,SBD,M
Boys,67.13,9,Christian Ifuku,Winnsboro,65.86,124.74,70.31,129.27,324.32,Single-ply,SBD,M
Boys,67.13,10,Daniel Williamson,White Oak,61.51,117.93,63.5,131.54,312.98,Single-ply,SBD,M
Boys,67.13,11,Kole Stripland,Gladewater Sabine,64.68,111.13,65.77,127.01,303.91,Single-ply,SBD,M
Boys,67.13,12,Kaleb Nichols,Mount Enterprise,63.59,120.2,70.31,104.33,294.84,Single-ply,SBD,M
Boys,67.13,13,Ruben Infante,Winnsboro,66.5,106.59,70.31,111.13,288.03,Single-ply,SBD,M
Boys,74.84,1,Jonathan Spurlin,Winnsboro,73.75,192.78,129.27,192.78,514.83,Single-ply,SBD,M
Boys,74.84,2,Dakota Boone,Quitman,72.85,172.37,106.59,192.78,471.74,Single-ply,SBD,M
Boys,74.84,3,Ethan Ward,Winnsboro,71.4,174.63,106.59,188.24,469.47,Single-ply,SBD,M
Boys,74.84,4,Caleb Hampton,White Oak,74.39,176.9,124.74,163.29,464.93,Single-ply,SBD,M
Boys,74.84,5,Nick Carter,Redwater,72.12,176.9,102.06,181.44,460.4,Single-ply,SBD,M
Boys,74.84,6,Austen Walls,Mineola,71.58,147.42,124.74,142.88,415.04,Single-ply,SBD,M
Boys,74.84,7,Wade Moody,Redwater,68.86,142.88,104.33,165.56,412.77,Single-ply,SBD,M
Boys,74.84,8,Wes Atkinson,Gladewater Union Grove,69.76,142.88,90.72,154.22,387.82,Single-ply,SBD,M
Boys,74.84,9,Daniel Wood,Gladewater Sabine,72.39,147.42,79.38,158.76,385.55,Single-ply,SBD,M
Boys,74.84,10,Jose Gaspar,Winnsboro,71.58,129.27,102.06,138.35,369.68,Single-ply,SBD,M
Boys,74.84,11,Alexander Redar,Mount Vernon,74.21,115.67,70.31,156.49,342.46,Single-ply,SBD,M
Boys,74.84,12,Dalton Decker,Mount Vernon,69.4,136.08,68.04,136.08,340.19,Single-ply,SBD,M
Boys,74.84,13,Todd Flannigan,Mount Enterprise,70.31,113.4,81.65,117.93,312.98,Single-ply,SBD,M
Boys,74.84,14,Braydon Miller,Quitman,70.67,113.4,65.77,122.47,301.64,Single-ply,SBD,M
Boys,74.84,15,Dawson Blear,Laird Hill Leveretts Chapel,71.76,113.4,63.5,92.99,269.89,Single-ply,SBD,M
Boys,74.84,16,Aaren Webb,Gladewater Sabine,70.76,83.91,61.23,120.2,265.35,Single-ply,SBD,M
Boys,74.84,DQ,Brendon Pullen,Gladewater Union Grove,73.12,,,,,Single-ply,SBD,M
Boys,74.84,DQ,Trey Hassek,Gladewater Union Grove,69.22,136.08,74.84,,,Single-ply,SBD,M
Boys,74.84,DQ,David By,Pittsburg,73.75,199.58,,,,Single-ply,SBD,M
Boys,82.1,1,Kolby Brown,Winnsboro,79.38,188.24,138.35,192.78,519.36,Single-ply,SBD,M
Boys,82.1,2,Jordan Helms,Redwater,78.38,192.78,129.27,192.78,514.83,Single-ply,SBD,M
Boys,82.1,3,Cameron Woods,Mount Vernon,77.56,204.12,104.33,201.85,510.29,Single-ply,SBD,M
Boys,82.1,4,Eric Arriaga,Big Sandy Harmony,81.56,181.44,108.86,197.31,487.61,Single-ply,SBD,M
Boys,82.1,5,Cameron Greenberg,Mount Vernon,79.65,190.51,106.59,188.24,485.34,Single-ply,SBD,M
Boys,82.1,6,John Haller,Mount Vernon,77.29,185.97,95.25,195.04,476.27,Single-ply,SBD,M
Boys,82.1,7,Tj Cole,Texarkana Pleasant Grove,81.01,204.12,97.52,170.1,471.74,Single-ply,SBD,M
Boys,82.1,8,Adrian Martinez #9,Grand Saline,76.11,170.1,124.74,174.63,469.47,Single-ply,SBD,M
Boys,82.1,9,Adam Caudle,Gladewater Sabine,79.92,170.1,97.52,185.97,453.59,Single-ply,SBD,M
Boys,82.1,10,Josh Roberts #2,Texarkana Pleasant Grove,77.02,165.56,102.06,161.03,428.64,Single-ply,SBD,M
Boys,82.1,11,Adrian Snyder,White Oak,78.2,142.88,102.06,181.44,426.38,Single-ply,SBD,M
Boys,82.1,12,Brandon Holland,Grand Saline,81.47,170.1,88.45,158.76,417.3,Single-ply,SBD,M
Boys,82.1,13,Tristan Chavers,Gladewater Union Grove,81.56,158.76,90.72,161.03,410.5,Single-ply,SBD,M
Boys,82.1,14,Juan Castillo,Big Sandy Harmony,78.47,136.08,86.18,147.42,369.68,Single-ply,SBD,M
Boys,82.1,15,Scott Davis,Mount Enterprise,76.84,111.13,86.18,142.88,340.19,Single-ply,SBD,M
Boys,89.81,1,Zanoah Arnold,Texarkana Liberty-Eylau,82.83,265.35,158.76,265.35,689.46,Single-ply,SBD,M
Boys,89.81,2,Alec Mayhan,Gladewater Union Grove,88.9,210.92,129.27,208.65,548.85,Single-ply,SBD,M
Boys,89.81,3,Stancio Battles,New Boston,88.36,204.12,108.86,231.33,544.31,Single-ply,SBD,M
Boys,89.81,4,Dylan Borden,Gladewater Union Grove,89.81,201.85,133.81,204.12,539.77,Single-ply,SBD,M
Boys,89.81,5,D'Wayne Coleman,Texarkana Liberty-Eylau,88.36,170.1,124.74,201.85,496.68,Single-ply,SBD,M
Boys,89.81,6,Dylan Roberts,Redwater,83.37,199.58,106.59,188.24,494.42,Single-ply,SBD,M
Boys,89.81,7,Cole Hobbs,Gladewater Sabine,82.92,183.7,115.67,183.7,483.08,Single-ply,SBD,M
Boys,89.81,8,Cheyenne Compton,Gladewater Sabine,86.73,183.7,90.72,195.04,469.47,Single-ply,SBD,M
Boys,89.81,9,Patrick Martinez,White Oak,83.55,165.56,99.79,199.58,464.93,Single-ply,SBD,M
Boys,89.81,10,Derek Mayhugh,Grand Saline,86.73,170.1,106.59,179.17,455.86,Single-ply,SBD,M
Boys,89.81,11,Will Cullipher,Texarkana Pleasant Grove,82.55,151.95,99.79,147.42,399.16,Single-ply,SBD,M
Boys,89.81,DQ,Caleb Porchia,Texarkana Pleasant Grove,89.45,183.7,,,,Single-ply,SBD,M
Boys,89.81,DQ,Jamar Thompson,Mount Enterprise,87.27,170.1,,149.69,,Single-ply,SBD,M
Boys,99.79,1,Darrell Houff,Texarkana Liberty-Eylau,96.25,249.48,197.31,215.46,662.24,Single-ply,SBD,M
Boys,99.79,2,Hunter Harrison,Redwater,97.34,263.08,147.42,226.8,637.3,Single-ply,SBD,M
Boys,99.79,3,Michael Lindley,Texarkana Liberty-Eylau,96.25,226.8,151.95,238.14,616.89,Single-ply,SBD,M
Boys,99.79,4,Michael Hodge,Texarkana Liberty-Eylau,97.16,204.12,142.88,219.99,566.99,Single-ply,SBD,M
Boys,99.79,5,Zachery Pilgrim,Hughes Springs,94.53,197.31,142.88,192.78,532.97,Single-ply,SBD,M
Boys,99.79,6,Jacob Hurst,Mineola,94.89,197.31,124.74,190.51,512.56,Single-ply,SBD,M
Boys,99.79,7,Jared Yarbrough,Winnsboro,94.08,206.38,115.67,179.17,501.22,Single-ply,SBD,M
Boys,99.79,8,Garrett Harp,Redwater,99.79,192.78,113.4,192.78,498.95,Single-ply,SBD,M
Boys,99.79,9,William Kliewer,Texarkana Pleasant Grove,97.61,174.63,117.93,195.04,487.61,Single-ply,SBD,M
Boys,99.79,10,Colt Bradford,Redwater,97.52,181.44,102.06,183.7,467.2,Single-ply,SBD,M
Boys,99.79,11,Undra Bates,Pittsburg,94.26,158.76,97.52,204.12,460.4,Single-ply,SBD,M
Boys,99.79,12,Ben Culp,Redwater,96.8,174.63,113.4,170.1,458.13,Single-ply,SBD,M
Boys,99.79,13,Cash Nations,Grand Saline,95.07,161.03,106.59,174.63,442.25,Single-ply,SBD,M
Boys,99.79,14,Angel Agulliou,Big Sandy Harmony,91.63,170.1,95.25,165.56,430.91,Single-ply,SBD,M
Boys,99.79,15,Cade McCoy,Redwater,94.26,165.56,102.06,142.88,410.5,Single-ply,SBD,M
Boys,99.79,16,Huntter Higgins,Quitman,95.07,161.03,70.31,161.03,392.36,Single-ply,SBD,M
Boys,99.79,17,Colton Brantley,Mount Vernon,99.52,142.88,86.18,161.03,390.09,Single-ply,SBD,M
Boys,99.79,18,Dillan Arden,Gladewater Union Grove,92.99,145.15,79.38,149.69,374.21,Single-ply,SBD,M
Boys,99.79,DQ,Antwon Robertson,Pittsburg,94.71,,,,,Single-ply,SBD,M
Boys,109.77,1,Cheyenne Lockhart,Texarkana Liberty-Eylau,108.5,226.8,127.01,238.14,591.94,Single-ply,SBD,M
Boys,109.77,2,Hunter Brabham,Hughes Springs,102.06,233.6,138.35,208.65,580.6,Single-ply,SBD,M
Boys,109.77,3,Colton Bergt,Texarkana Liberty-Eylau,107.68,229.06,117.93,229.06,576.06,Single-ply,SBD,M
Boys,109.77,4,Bobby Haggard,Gladewater Union Grove,104.05,208.65,111.13,204.12,523.9,Single-ply,SBD,M
Boys,109.77,5,Tony Medina,Big Sandy Harmony,107.77,185.97,117.93,172.37,476.27,Single-ply,SBD,M
Boys,109.77,6,Grant Newton,Winnsboro,107.86,188.24,115.67,170.1,474,Single-ply,SBD,M
Boys,109.77,7,Slade Whitson,Pittsburg,104.51,181.44,92.99,195.04,469.47,Single-ply,SBD,M
Boys,109.77,8,Sanjay Pokhrel,Texarkana Pleasant Grove,103.06,181.44,90.72,181.44,453.59,Single-ply,SBD,M
Boys,109.77,9,Cole Slade,Texarkana Pleasant Grove,103.78,192.78,106.59,151.95,451.32,Single-ply,SBD,M
Boys,109.77,10,Tyler O'Bier,Mount Vernon,105.23,147.42,79.38,151.95,378.75,Single-ply,SBD,M
Boys,109.77,11,Aaron McKiddy,Grand Saline,103.69,133.81,86.18,133.81,353.8,Single-ply,SBD,M
Boys,109.77,12,Deandre Furgeson,Mount Enterprise,103.87,108.86,68.04,102.06,278.96,Single-ply,SBD,M
Boys,109.77,DQ,Chad Batie,Laird Hill Leveretts Chapel,107.86,149.69,,,,Single-ply,SBD,M
Boys,124.74,1,Christian Chamness,Mount Vernon,113.67,260.82,124.74,256.28,641.83,Single-ply,SBD,M
Boys,124.74,2,Morgan Clark #1,Gladewater Union Grove,123.56,272.16,136.08,233.6,641.83,Single-ply,SBD,M
Boys,124.74,3,Sammy Palma,Grand Saline,114.76,210.92,131.54,226.8,569.26,Single-ply,SBD,M
Boys,124.74,4,De'Waven Rowden,Texarkana Liberty-Eylau,110.59,215.46,136.08,215.46,566.99,Single-ply,SBD,M
Boys,124.74,5,Connor Green,Texarkana Liberty-Eylau,118.93,195.04,97.52,197.31,489.88,Single-ply,SBD,M
Boys,124.74,6,Zach Wrinkle,Texarkana Pleasant Grove,112.67,165.56,108.86,170.1,444.52,Single-ply,SBD,M
Boys,124.74,7,Kaden Parris,Redwater,120.56,136.08,90.72,136.08,362.87,Single-ply,SBD,M
Boys,124.74+,1,Carter Wheat,White Oak,132.72,281.23,142.88,229.06,653.17,Single-ply,SBD,M
Boys,124.74+,2,Nick Gavriel,Texarkana Pleasant Grove,136.08,206.38,129.27,210.92,546.58,Single-ply,SBD,M
Boys,124.74+,3,Kevin Hawkins,Mineola,143.15,208.65,140.61,195.04,544.31,Single-ply,SBD,M
Boys,124.74+,4,Austin Toler,Texarkana Pleasant Grove,133.54,206.38,142.88,192.78,542.04,Single-ply,SBD,M
Boys,124.74+,5,Isaac Sims,Quitman,138.71,195.04,111.13,219.99,526.17,Single-ply,SBD,M
Boys,124.74+,6,John McCurdy,Winnsboro,133.27,188.24,142.88,183.7,514.83,Single-ply,SBD,M
Boys,124.74+,7,Victor Sanches,New Boston,135.35,210.92,104.33,179.17,494.42,Single-ply,SBD,M
Boys,124.74+,8,Noah Lewelling,Quitman,128.82,179.17,122.47,185.97,487.61,Single-ply,SBD,M
Boys,124.74+,9,Cade Rester,Pittsburg,127.1,181.44,99.79,172.37,453.59,Single-ply,SBD,M
Boys,124.74+,DQ,Shamaal Parrish,Texarkana Liberty-Eylau,157.58,249.48,,,,Single-ply,SBD,M
